version="0.01"
tags={
	"Alternative History"
	"Map"
	"National Ideas"
	"Events"
	"Expansion"
	"New Nations"
	"Religion"
}
name="Equestria Universalis"
supported_version="1.31.*"
replace_path="history/provinces"
replace_path="history/countries"
replace_path="history/diplomacy"
replace_path="history/advisors"
replace_path="history/wars"

replace_path="common/bookmarks"
replace_path="common/countries"
replace_path="common/mercenary_companies"

replace_path="events"
replace_path="missions"
replace_path="decisions"